5.813214599609374744e+01
2.131830810546874844e+01
1.747258993148803796e+01
1.700832588195800810e+01
1.449038593292236321e+01
1.450321853637695391e+01
1.296062759399413977e+01
1.211665023803710994e+01
1.174324813842773452e+01
1.167452293395996143e+01
1.118283430099487319e+01
1.110493412017822301e+01
1.232567760467529361e+01
1.000873300552368228e+01
9.879136657714843395e+00
9.581869258880615803e+00
9.681010608673096485e+00
9.701047477722168466e+00
9.398583784103394123e+00
9.500986251831054830e+00
9.155893859863281747e+00
8.926085720062255646e+00
8.734118375778198384e+00
1.000273603439331005e+01
9.303014183044433949e+00
1.090793775558471701e+01
8.765964546203612429e+00
8.471178760528564666e+00
8.986460399627684836e+00
8.452127294540405344e+00
8.373624277114867454e+00
8.905317316055297638e+00
8.322268342971801403e+00
8.358462505340575888e+00
8.310158815383910991e+00
8.228168296813965554e+00
8.200271997451782369e+00
8.561932401657104563e+00
8.370054454803467436e+00
8.564872179031372212e+00
8.575271692276000834e+00
8.335708551406860067e+00
8.125379552841186737e+00
7.762728099822997940e+00
8.207541084289550426e+00
8.096039714813231924e+00
8.122338113784790536e+00
7.857404289245605078e+00
8.065171594619750195e+00
7.944346179962158416e+00
