2.646073642730712905e+01
1.988513362884521385e+01
1.134214116058349646e+04
1.610055118560790888e+01
1.945182590484619212e+01
1.452077707290649400e+01
1.357167657852172837e+01
1.260641624450683551e+01
1.228524791717529219e+01
1.168072868347167947e+01
1.119191492080688555e+01
1.097849212646484318e+01
1.024419181823730440e+01
1.006349617004394581e+01
9.932473430633544709e+00
9.629551372528077025e+00
9.531808071136474325e+00
1.042505174636840870e+01
9.989384517669677166e+00
9.419702472686767081e+00
9.115210285186767791e+00
9.632966041564941406e+00
8.967531270980835245e+00
9.220645904541015625e+00
8.899287290573120401e+00
9.621804523468018289e+00
8.758489084243773704e+00
8.662709331512450817e+00
8.797307195663451651e+00
9.385868339538573579e+00
8.740100498199462109e+00
8.582939596176148100e+00
8.558844776153565093e+00
8.539284772872925089e+00
8.368795566558837606e+00
8.444677219390868572e+00
8.286612796783447976e+00
8.593824195861817117e+00
8.811957931518554332e+00
8.320187282562255149e+00
8.159189014434813814e+00
8.309867820739746946e+00
8.244801731109619780e+00
7.997510452270507386e+00
8.004120311737061400e+00
8.052366514205932191e+00
8.088430614471436186e+00
7.854688501358031871e+00
7.952498636245727504e+00
8.269552717208862092e+00
