2.452838519287109307e+02
2.755705022811889648e+01
1.861096101760864130e+01
1.666367929458618136e+01
1.548004856109619176e+01
1.455340915679931690e+01
1.353859471321105978e+01
1.263150207519531243e+01
1.195589118957519581e+01
1.134866663932800357e+01
1.080311893463134787e+01
1.043550397872924762e+01
9.987273645401000266e+00
9.722882604598998668e+00
9.516404981613158398e+00
9.199944734573364258e+00
9.076932945251463991e+00
8.904954447746277424e+00
8.746439037322998544e+00
8.598318157196045419e+00
8.560267624855042001e+00
8.417530617713929075e+00
8.353507542610168812e+00
8.116536803245544718e+00
8.240563883781433674e+00
7.827806768417358008e+00
7.768239860534667862e+00
7.780174336433410609e+00
7.709556579589843750e+00
7.609791646003722931e+00
7.574410209655761506e+00
7.624542207717895259e+00
7.587248201370239364e+00
7.352278175354004297e+00
7.261359257698059011e+00
7.346882891654968439e+00
7.261687479019165004e+00
7.303116822242737172e+00
7.127460465431213699e+00
7.038791823387145818e+00
7.068486633300781641e+00
7.022750735282897949e+00
6.985782737731933700e+00
6.979401111602783203e+00
6.966746344566344895e+00
6.989722766876220739e+00
6.959112300872802415e+00
6.925235023498535369e+00
6.914559588432312331e+00
6.887992649078369389e+00
